<svg width="3" height="142" viewBox="0 0 3 142" fill="none" xmlns="http://www.w3.org/2000/svg">
  <g clip-path="url(#clip0_1_231-530854)">
  <path d="M1.41797 0.377075L1.41796 141.409" stroke="white" stroke-width="1.95955"/>
  </g>
  <defs>
  <clipPath id="clip0_1_231-530854">
  <rect width="3" height="142" fill="white"/>
  </clipPath>
  </defs>
  </svg>
  